<?xml version="1.0" encoding="UTF-8" standalone="no"?>
<!-- Created with Inkscape (http://www.inkscape.org/) -->

<svg
   width="96"
   height="96"
   viewBox="0 0 25.399999 25.4"
   version="1.1"
   id="svg5"
   xml:space="preserve"
   inkscape:version="1.2.1 (9c6d41e410, 2022-07-14, custom)"
   sodipodi:docname="logo_material.svg"
   xmlns:inkscape="http://www.inkscape.org/namespaces/inkscape"
   xmlns:sodipodi="http://sodipodi.sourceforge.net/DTD/sodipodi-0.dtd"
   xmlns:xlink="http://www.w3.org/1999/xlink"
   xmlns="http://www.w3.org/2000/svg"
   xmlns:svg="http://www.w3.org/2000/svg"><sodipodi:namedview
     id="namedview7"
     pagecolor="#248ee2"
     bordercolor="#999999"
     borderopacity="1"
     inkscape:showpageshadow="0"
     inkscape:pageopacity="1"
     inkscape:pagecheckerboard="0"
     inkscape:deskcolor="#d1d1d1"
     inkscape:document-units="mm"
     showgrid="false"
     inkscape:zoom="5.6568542"
     inkscape:cx="74.334601"
     inkscape:cy="54.005281"
     inkscape:window-width="1920"
     inkscape:window-height="1052"
     inkscape:window-x="0"
     inkscape:window-y="0"
     inkscape:window-maximized="1"
     inkscape:current-layer="layer1" /><defs
     id="defs2" /><g
     inkscape:label="Layer 1"
     inkscape:groupmode="layer"
     id="layer1"><path
       style="fill:none;stroke:#ffffff;stroke-width:1.1;stroke-linecap:butt;stroke-linejoin:miter;stroke-miterlimit:4;stroke-dasharray:none;stroke-opacity:1"
       d="m -43.816394,-8.4195335 1.040732,-1.151078 c 1.066048,-1.1790795 1.494765,-1.9903225 -0.06838,-3.4034985 l -2.084783,-1.884763 c -0.526828,-0.476282 -0.576056,-1.280297 -0.109955,-1.79582 0.466101,-0.515521 1.27103,-0.547333 1.797858,-0.07105 l 3.815621,3.44954 5.958654,5.3869635 c 0.526828,0.476283 1.331755,0.444474 1.797857,-0.07105 0.466102,-0.515523 0.416873,-1.319539 -0.109956,-1.795822 l -5.958655,-5.3869585 -7.055957,-6.378988 c -0.526828,-0.476283 -0.576057,-1.280299 -0.109955,-1.79582 0.466101,-0.515521 1.271029,-0.547332 1.797857,-0.07105 l 7.055957,6.378988 7.551205,6.826723 c 0.52683,0.4762815 1.331757,0.4444745 1.797858,-0.07104 0.466103,-0.515523 0.416873,-1.319539 -0.109955,-1.795823 l -7.551208,-6.826727 -7.582566,-6.855074 c -0.526827,-0.476282 -0.576058,-1.280296 -0.109957,-1.795818 0.466102,-0.515522 1.271031,-0.547332 1.797858,-0.07105 l 7.582567,6.855075 7.125396,6.441771 c 0.526829,0.476283 1.331756,0.444473 1.797859,-0.07106 0.4661,-0.515522 0.416874,-1.319537 -0.109956,-1.795821 l -7.125398,-6.441758 -6.103188,-5.517629 c -0.526827,-0.476283 -0.576056,-1.280298 -0.109954,-1.795819 0.4661,-0.515522 1.271028,-0.547333 1.797856,-0.07105 l 6.103187,5.517631 4.084399,3.692532 c 0.526827,0.476281 1.331754,0.444474 1.797856,-0.07105 0.466101,-0.515523 0.416874,-1.31954 -0.109957,-1.795822 l -2.92997,-2.648859 c -0.600543,-0.542926 -0.86836,-1.360067 -0.22718,-2.069232 l 1.748021,-1.93336"
       id="path3698"
       sodipodi:nodetypes="ccccscccscccscccscccscccscccscccsccsc" /><circle
       style="font-variation-settings:normal;opacity:1;fill:#ffffff;fill-opacity:1;stroke:none;stroke-width:3.294;stroke-linecap:butt;stroke-linejoin:miter;stroke-miterlimit:4;stroke-dasharray:none;stroke-dashoffset:0;stroke-opacity:1;paint-order:markers stroke fill;stop-color:#000000;stop-opacity:1"
       id="path3817"
       cx="-24.934729"
       cy="-29.303198"
       r="2.0187128" /><circle
       style="font-variation-settings:normal;fill:#ffffff;fill-opacity:1;stroke:none;stroke-width:3.294;stroke-linecap:butt;stroke-linejoin:miter;stroke-miterlimit:4;stroke-dasharray:none;stroke-dashoffset:0;stroke-opacity:1;paint-order:markers stroke fill;stop-color:#000000"
       id="path3817-3"
       cx="-43.816391"
       cy="-8.4195328"
       r="2.0187128" /><path
       style="font-variation-settings:normal;opacity:1;vector-effect:none;fill:#ffffff;fill-opacity:0.488627;stroke:#ffffff;stroke-width:0.733267;stroke-linecap:butt;stroke-linejoin:miter;stroke-miterlimit:4;stroke-dasharray:none;stroke-dashoffset:0;stroke-opacity:1;-inkscape-stroke:none;paint-order:markers stroke fill;stop-color:#000000;stop-opacity:1"
       d="m 66.236654,-18.590132 3.703758,9.9738111 3.703759,-9.9738111"
       id="path1059"
       sodipodi:nodetypes="ccc" /><path
       style="font-variation-settings:normal;opacity:1;vector-effect:none;fill:none;fill-opacity:1;stroke:#ffffff;stroke-width:1.02205;stroke-linecap:butt;stroke-linejoin:miter;stroke-miterlimit:4;stroke-dasharray:none;stroke-dashoffset:0;stroke-opacity:1;-inkscape-stroke:none;paint-order:markers stroke fill;stop-color:#000000;stop-opacity:1"
       d="M 62.010793,-7.1058209 H 77.870032"
       id="path1222" /><path
       style="font-variation-settings:normal;opacity:1;fill:none;fill-opacity:1;stroke:#ffffff;stroke-width:1.02205;stroke-linecap:round;stroke-linejoin:miter;stroke-miterlimit:4;stroke-dasharray:none;stroke-dashoffset:0;stroke-opacity:1;paint-order:markers stroke fill;stop-color:#000000;stop-opacity:1"
       d="m 69.940413,-5.4938199 -7.92962,7.32746"
       id="path1224" /><path
       style="font-variation-settings:normal;opacity:1;fill:none;fill-opacity:1;stroke:#ffffff;stroke-width:1.02205;stroke-linecap:round;stroke-linejoin:miter;stroke-miterlimit:4;stroke-dasharray:none;stroke-dashoffset:0;stroke-opacity:1;paint-order:markers stroke fill;stop-color:#000000;stop-opacity:1"
       d="M 69.940413,-5.4938199 67.040527,4.9062381"
       id="path1226" /><path
       style="font-variation-settings:normal;opacity:1;fill:none;fill-opacity:1;stroke:#ffffff;stroke-width:1.02205;stroke-linecap:round;stroke-linejoin:miter;stroke-miterlimit:4;stroke-dasharray:none;stroke-dashoffset:0;stroke-opacity:1;paint-order:markers stroke fill;stop-color:#000000;stop-opacity:1"
       d="m 69.940413,-5.4938199 7.929619,7.32746"
       id="path1228" /><path
       style="font-variation-settings:normal;opacity:1;fill:none;fill-opacity:1;stroke:#ffffff;stroke-width:1.02205;stroke-linecap:round;stroke-linejoin:miter;stroke-miterlimit:4;stroke-dasharray:none;stroke-dashoffset:0;stroke-opacity:1;paint-order:markers stroke fill;stop-color:#000000;stop-opacity:1"
       d="m 69.940413,-5.4938199 2.899885,10.400058"
       id="path1230" /><circle
       style="font-variation-settings:normal;opacity:1;fill:#ffffff;fill-opacity:1;stroke:none;stroke-width:1.78531;stroke-linecap:round;stroke-linejoin:miter;stroke-miterlimit:4;stroke-dasharray:none;stroke-dashoffset:0;stroke-opacity:1;paint-order:markers stroke fill;stop-color:#000000;stop-opacity:1"
       id="path1854"
       cx="12.992065"
       cy="12.419655"
       r="3.214761" /><circle
       style="font-variation-settings:normal;opacity:1;fill:#ffffff;fill-opacity:1;stroke:none;stroke-width:1.03979;stroke-linecap:round;stroke-linejoin:miter;stroke-miterlimit:4;stroke-dasharray:none;stroke-dashoffset:0;stroke-opacity:1;paint-order:markers stroke fill;stop-color:#000000"
       id="path1854-0"
       cx="17.730858"
       cy="7.6808634"
       r="1.8723173" /><circle
       style="font-variation-settings:normal;opacity:1;fill:#ffffff;fill-opacity:1;stroke:none;stroke-width:1.03979;stroke-linecap:round;stroke-linejoin:miter;stroke-miterlimit:4;stroke-dasharray:none;stroke-dashoffset:0;stroke-opacity:1;paint-order:markers stroke fill;stop-color:#000000"
       id="path1854-0-3"
       cx="19.465378"
       cy="14.154173"
       r="1.8723173" /><circle
       style="font-variation-settings:normal;opacity:1;fill:#ffffff;fill-opacity:1;stroke:none;stroke-width:1.03979;stroke-linecap:round;stroke-linejoin:miter;stroke-miterlimit:4;stroke-dasharray:none;stroke-dashoffset:0;stroke-opacity:1;paint-order:markers stroke fill;stop-color:#000000"
       id="path1854-0-6"
       cx="14.726584"
       cy="18.892963"
       r="1.8723173" /><circle
       style="font-variation-settings:normal;opacity:1;fill:#ffffff;fill-opacity:1;stroke:none;stroke-width:1.03979;stroke-linecap:round;stroke-linejoin:miter;stroke-miterlimit:4;stroke-dasharray:none;stroke-dashoffset:0;stroke-opacity:1;paint-order:markers stroke fill;stop-color:#000000"
       id="path1854-0-1"
       cx="8.2532749"
       cy="17.158447"
       r="1.8723173" /><circle
       style="font-variation-settings:normal;opacity:1;fill:#ffffff;fill-opacity:1;stroke:none;stroke-width:1.03979;stroke-linecap:round;stroke-linejoin:miter;stroke-miterlimit:4;stroke-dasharray:none;stroke-dashoffset:0;stroke-opacity:1;paint-order:markers stroke fill;stop-color:#000000"
       id="path1854-0-0"
       cx="6.5187569"
       cy="10.685137"
       r="1.8723173" /><circle
       style="font-variation-settings:normal;opacity:1;fill:#ffffff;fill-opacity:1;stroke:none;stroke-width:1.03979;stroke-linecap:round;stroke-linejoin:miter;stroke-miterlimit:4;stroke-dasharray:none;stroke-dashoffset:0;stroke-opacity:1;paint-order:markers stroke fill;stop-color:#000000"
       id="path1854-0-63"
       cx="11.257549"
       cy="5.9463453"
       r="1.8723173" /><circle
       style="font-variation-settings:normal;opacity:1;fill:#ffffff;fill-opacity:1;stroke:none;stroke-width:0.771621;stroke-linecap:round;stroke-linejoin:miter;stroke-miterlimit:4;stroke-dasharray:none;stroke-dashoffset:0;stroke-opacity:1;paint-order:markers stroke fill;stop-color:#000000"
       id="circle2219"
       cx="12.218384"
       cy="10.075018"
       r="1.3894271"
       transform="rotate(-30)" /><circle
       style="font-variation-settings:normal;opacity:1;fill:#ffffff;fill-opacity:1;stroke:none;stroke-width:0.771621;stroke-linecap:round;stroke-linejoin:miter;stroke-miterlimit:4;stroke-dasharray:none;stroke-dashoffset:0;stroke-opacity:1;paint-order:markers stroke fill;stop-color:#000000"
       id="circle2221"
       cx="14.845256"
       cy="19.878643"
       r="1.3894271"
       transform="rotate(-30)" /><circle
       style="font-variation-settings:normal;opacity:1;fill:#ffffff;fill-opacity:1;stroke:none;stroke-width:0.771621;stroke-linecap:round;stroke-linejoin:miter;stroke-miterlimit:4;stroke-dasharray:none;stroke-dashoffset:0;stroke-opacity:1;paint-order:markers stroke fill;stop-color:#000000"
       id="circle2223"
       cx="7.6685047"
       cy="27.055393"
       r="1.3894271"
       transform="rotate(-30)" /><circle
       style="font-variation-settings:normal;opacity:1;fill:#ffffff;fill-opacity:1;stroke:none;stroke-width:0.771621;stroke-linecap:round;stroke-linejoin:miter;stroke-miterlimit:4;stroke-dasharray:none;stroke-dashoffset:0;stroke-opacity:1;paint-order:markers stroke fill;stop-color:#000000"
       id="circle2225"
       cx="-2.1351192"
       cy="24.428524"
       r="1.3894271"
       transform="rotate(-30)" /><circle
       style="font-variation-settings:normal;opacity:1;fill:#ffffff;fill-opacity:1;stroke:none;stroke-width:0.771621;stroke-linecap:round;stroke-linejoin:miter;stroke-miterlimit:4;stroke-dasharray:none;stroke-dashoffset:0;stroke-opacity:1;paint-order:markers stroke fill;stop-color:#000000"
       id="circle2227"
       cx="-4.7619925"
       cy="14.624899"
       r="1.3894271"
       transform="rotate(-30)" /><circle
       style="font-variation-settings:normal;opacity:1;fill:#ffffff;fill-opacity:1;stroke:none;stroke-width:0.771621;stroke-linecap:round;stroke-linejoin:miter;stroke-miterlimit:4;stroke-dasharray:none;stroke-dashoffset:0;stroke-opacity:1;paint-order:markers stroke fill;stop-color:#000000"
       id="circle2229"
       cx="2.4147611"
       cy="7.4481444"
       r="1.3894271"
       transform="rotate(-30)" /></g><g
     inkscape:groupmode="layer"
     id="layer2"
     inkscape:label="Layer 2"
     style="display:none"><ellipse
       style="font-variation-settings:normal;opacity:1;vector-effect:none;fill:none;fill-opacity:1;stroke:#000000;stroke-width:0.529168;stroke-linecap:butt;stroke-linejoin:miter;stroke-miterlimit:4;stroke-dasharray:none;stroke-dashoffset:0;stroke-opacity:1;-inkscape-stroke:none;paint-order:fill markers stroke;stop-color:#000000;stop-opacity:1"
       id="ellipse2418"
       cx="12.699999"
       cy="13.067096"
       rx="39.756165"
       ry="39.314346" /><image
       width="38.629166"
       height="24.077084"
       preserveAspectRatio="none"
       xlink:href="data:image/png;base64,iVBORw0KGgoAAAANSUhEUgAAAJIAAABbCAIAAAAX/kulAAAAA3NCSVQICAjb4U/gAAAA70lEQVR4 nO3RQQ3AIADAwDEt6EUkSvDAhzS5U9CkY679UfO/DuCGbUm2JdmWZFuSbUm2JdmWZFuSbUm2JdmW ZFuSbUm2JdmWZFuSbUm2JdmWZFuSbUm2JdmWZFuSbUm2JdmWZFuSbUm2JdmWZFuSbUm2JdmWZFuS bUm2JdmWZFuSbUm2JdmWZFuSbUm2JdmWZFuSbUm2JdmWZFuSbUm2JdmWZFuSbUm2JdmWZFuSbUm2 JdmWZFuSbUm2JdmWZFuSbUm2JdmWZFuSbUm2JdmWZFuSbUm2JdmWZFuSbUm2JdmWZFuSbUm2JdmW ZFuSbUkHZvwCSt3qRysAAAAASUVORK5CYII= "
       id="image2428"
       x="81.781807"
       y="47.266724" /></g></svg>
